%YAML 1.1
%TAG !u! tag:unity3d.com,2011:
--- !u!21 &2100000
Material:
  serializedVersion: 8
  m_ObjectHideFlags: 0
  m_CorrespondingSourceObject: {fileID: 0}
  m_PrefabInstance: {fileID: 0}
  m_PrefabAsset: {fileID: 0}
  m_Name: Smoke 5-1
  m_Shader: {fileID: 4800000, guid: 5c8eae1900fd5324199b816f4f4a3bb5, type: 3}
  m_ValidKeywords: []
  m_InvalidKeywords: []
  m_LightmapFlags: 0
  m_EnableInstancingVariants: 0
  m_DoubleSidedGI: 0
  m_CustomRenderQueue: -1
  stringTagMap: {}
  disabledShaderPasses: []
  m_SavedProperties:
    serializedVersion: 3
    m_TexEnvs:
    - _Alpha:
        m_Texture: {fileID: 0}
        m_Scale: {x: 1, y: 1}
        m_Offset: {x: 0, y: 0}
    - _BumpMap:
        m_Texture: {fileID: 0}
        m_Scale: {x: 1, y: 1}
        m_Offset: {x: 0, y: 0}
    - _DetailAlbedoMap:
        m_Texture: {fileID: 0}
        m_Scale: {x: 1, y: 1}
        m_Offset: {x: 0, y: 0}
    - _DetailMask:
        m_Texture: {fileID: 0}
        m_Scale: {x: 1, y: 1}
        m_Offset: {x: 0, y: 0}
    - _DetailNormalMap:
        m_Texture: {fileID: 0}
        m_Scale: {x: 1, y: 1}
        m_Offset: {x: 0, y: 0}
    - _Distortion:
        m_Texture: {fileID: 0}
        m_Scale: {x: 1, y: 1}
        m_Offset: {x: 0, y: 0}
    - _EmissionMap:
        m_Texture: {fileID: 0}
        m_Scale: {x: 1, y: 1}
        m_Offset: {x: 0, y: 0}
    - _EmissionTex:
        m_Texture: {fileID: 0}
        m_Scale: {x: 1, y: 1}
        m_Offset: {x: 0, y: 0}
    - _MainTex:
        m_Texture: {fileID: 2800000, guid: de5a169e4d144e84ba887530ec866d75, type: 3}
        m_Scale: {x: 1, y: 1}
        m_Offset: {x: 0, y: 0}
    - _MetallicGlossMap:
        m_Texture: {fileID: 0}
        m_Scale: {x: 1, y: 1}
        m_Offset: {x: 0, y: 0}
    - _Noise:
        m_Texture: {fileID: 0}
        m_Scale: {x: 1, y: 1}
        m_Offset: {x: 0, y: 0}
    - _Noise1:
        m_Texture: {fileID: 0}
        m_Scale: {x: 1, y: 1}
        m_Offset: {x: 0, y: 0}
    - _Normal:
        m_Texture: {fileID: 2800000, guid: 3e642b290e1041c45bbd75a4ab51cba7, type: 3}
        m_Scale: {x: 1, y: 1}
        m_Offset: {x: 0, y: 0}
    - _NormalMap:
        m_Texture: {fileID: 0}
        m_Scale: {x: 1, y: 1}
        m_Offset: {x: 0, y: 0}
    - _OcclusionMap:
        m_Texture: {fileID: 0}
        m_Scale: {x: 1, y: 1}
        m_Offset: {x: 0, y: 0}
    - _ParallaxMap:
        m_Texture: {fileID: 0}
        m_Scale: {x: 1, y: 1}
        m_Offset: {x: 0, y: 0}
    - _tex4coord:
        m_Texture: {fileID: 0}
        m_Scale: {x: 1, y: 1}
        m_Offset: {x: 0, y: 0}
    - _texcoord:
        m_Texture: {fileID: 0}
        m_Scale: {x: 1, y: 1}
        m_Offset: {x: 0, y: 0}
    - _texcoord2:
        m_Texture: {fileID: 0}
        m_Scale: {x: 1, y: 1}
        m_Offset: {x: 0, y: 0}
    m_Ints: []
    m_Floats:
    - _AlphaDissolve: 0
    - _AlphaEmissionDissolveSub: 0
    - _AlphaSoftness: 0.578
    - _BumpScale: 1
    - _Columns: 4
    - _CullMode: 2
    - _Cutoff: 0.5
    - _DepthFade: 0
    - _DepthSoftness: 1
    - _DetailNormalMapScale: 1
    - _DistortionAmount: 0
    - _DistortionDiff: 0
    - _DstBlend: 0
    - _EliminateEmissionRotation: 0
    - _EmissionAlpha: 0
    - _EmissionDissolve: 0
    - _EmissionSoftness1: 0
    - _EmissionSoftness2: 0
    - _EmissionSubValue: 0
    - _FinalAlphaSmoothstep: 0
    - _FinalAlphaSmoothstepMax: 1
    - _FinalAlphaSmoothstepMin: 0
    - _FinalEmissionSmoothstep: 0
    - _FinalEmissionSmoothstepMax: 1
    - _FinalEmissionSmoothstepMin: 0
    - _Float0: 0.61
    - _GlossMapScale: 1
    - _Glossiness: 0.5
    - _GlossyReflections: 1
    - _LowResNormalMap: 0
    - _MainSoftnessMax: 1
    - _MainSoftnessMin: 0
    - _MainTexSmoothstep: 0
    - _Metallic: 0
    - _Mode: 0
    - _NoiseSoftness1: 0
    - _NoiseSoftness2: 0
    - _NormalCreate: 0
    - _NormalMapEnabled: 0
    - _NormalScale: 1
    - _OcclusionStrength: 1
    - _Offset: 0.3
    - _Opacity: 1
    - _Parallax: 0.02
    - _Rows: 4
    - _SideFramesCount: 4
    - _SmoothnessTextureChannel: 0
    - _Softness1: 0
    - _Softness2: 1
    - _SpecularHighlights: 1
    - _SrcBlend: 1
    - _Strength: 1
    - _Test: 5.07
    - _TimeTest: 0.39
    - _UVSec: 0
    - _ZWrite: 1
    - __dirty: 0
    m_Colors:
    - _Color: {r: 1, g: 1, b: 1, a: 1}
    - _Color0: {r: 1, g: 1, b: 1, a: 1}
    - _Color1: {r: 1, g: 1, b: 1, a: 1}
    - _DistortionSpeed1: {r: 0, g: 0, b: 0, a: 0}
    - _DistortionSpeed2: {r: 0, g: 0, b: 0, a: 0}
    - _Emission: {r: 170.18172, g: 63.807056, b: 13.646649, a: 1}
    - _EmissionColor: {r: 0, g: 0, b: 0, a: 1}
    - _EmissionSpeed: {r: 0, g: 0, b: 0, a: 0}
    - _NoiseSpeed: {r: 0, g: 1, b: 0, a: 0}
    - _NoiseSpeed1: {r: 0, g: 1, b: 0, a: 0}
  m_BuildTextureStacks: []
